%YAML 1.1
%TAG !u! tag:unity3d.com,2011:
--- !u!74 &7400000
AnimationClip:
  m_ObjectHideFlags: 0
  m_PrefabParentObject: {fileID: 0}
  m_PrefabInternal: {fileID: 0}
  m_Name: Crashed
  serializedVersion: 6
  m_Legacy: 0
  m_Compressed: 0
  m_UseHighQualityCurve: 1
  m_RotationCurves:
  - curve:
      serializedVersion: 2
      m_Curve:
      - time: 0
        value: {x: 0, y: 0, z: -0.9633969, w: 0.26807913}
        inSlope: {x: 0, y: 0, z: -1.0136461, w: -5.793013}
        outSlope: {x: 0, y: 0, z: -1.0136461, w: -5.793013}
        tangentMode: 0
      - time: 0.033333335
        value: {x: 0, y: 0, z: -0.9971851, w: 0.07497869}
        inSlope: {x: 0, y: 0, z: -0.43882817, w: -5.8362355}
        outSlope: {x: 0, y: 0, z: -0.43882817, w: -5.8362355}
        tangentMode: 0
      - time: 0.06666667
        value: {x: 0, y: 0, z: -0.9926521, w: -0.121003255}
        inSlope: {x: 0, y: 0, z: 0.70819604, w: -5.809705}
        outSlope: {x: 0, y: 0, z: 0.70819604, w: -5.809705}
        tangentMode: 0
      - time: 0.10000001
        value: {x: 0, y: 0, z: -0.94997203, w: -0.31233498}
        inSlope: {x: 0, y: 0, z: 1.8280067, w: -5.559911}
        outSlope: {x: 0, y: 0, z: 1.8280067, w: -5.559911}
        tangentMode: 0
      - time: 0.13333334
        value: {x: 0, y: 0, z: -0.870785, w: -0.491664}
        inSlope: {x: 0, y: 0, z: 2.877566, w: -5.0964518}
        outSlope: {x: 0, y: 0, z: 2.877566, w: -5.0964518}
        tangentMode: 0
      - time: 0.16666667
        value: {x: 0, y: 0, z: -0.7581343, w: -0.6520984}
        inSlope: {x: 0, y: 0, z: 3.8165395, w: -4.4371367}
        outSlope: {x: 0, y: 0, z: 3.8165395, w: -4.4371367}
        tangentMode: 0
      - time: 0.2
        value: {x: 0, y: 0, z: -0.61634904, w: -0.7874731}
        inSlope: {x: 0, y: 0, z: 4.6088505, w: -3.6073103}
        outSlope: {x: 0, y: 0, z: 4.6088505, w: -3.6073103}
        tangentMode: 0
      - time: 0.23333333
        value: {x: 0, y: 0, z: -0.4508776, w: -0.89258575}
        inSlope: {x: 0, y: 0, z: 5.2240505, w: -2.6388578}
        outSlope: {x: 0, y: 0, z: 5.2240505, w: -2.6388578}
        tangentMode: 0
      - time: 0.26666668
        value: {x: 0, y: 0, z: -0.26807895, w: -0.96339697}
        inSlope: {x: 0, y: 0, z: 5.6384797, w: -1.56899}
        outSlope: {x: 0, y: 0, z: 5.6384797, w: -1.56899}
        tangentMode: 0
      - time: 0.3
        value: {x: 0, y: 0, z: -0.07497888, w: -0.9971851}
        inSlope: {x: 0, y: 0, z: 5.8362303, w: -0.43882734}
        outSlope: {x: 0, y: 0, z: 5.8362303, w: -0.43882734}
        tangentMode: 0
      - time: 0.33333334
        value: {x: 0, y: 0, z: 0.12100306, w: -0.9926521}
        inSlope: {x: 0, y: 0, z: 5.8097076, w: 0.7081962}
        outSlope: {x: 0, y: 0, z: 5.8097076, w: 0.7081962}
        tangentMode: 0
      - time: 0.36666667
        value: {x: 0, y: 0, z: 0.31233492, w: -0.94997203}
        inSlope: {x: 0, y: 0, z: 5.559907, w: 1.8280025}
        outSlope: {x: 0, y: 0, z: 5.559907, w: 1.8280025}
        tangentMode: 0
      - time: 0.4
        value: {x: 0, y: 0, z: 0.49166352, w: -0.8707853}
        inSlope: {x: 0, y: 0, z: 5.096449, w: 2.8775625}
        outSlope: {x: 0, y: 0, z: 5.096449, w: 2.8775625}
        tangentMode: 0
      - time: 0.43333334
        value: {x: 0, y: 0, z: 0.6520982, w: -0.75813454}
        inSlope: {x: 0, y: 0, z: 4.4371414, w: 3.8165405}
        outSlope: {x: 0, y: 0, z: 4.4371414, w: 3.8165405}
        tangentMode: 0
      - time: 0.46666667
        value: {x: 0, y: 0, z: 0.7874729, w: -0.6163493}
        inSlope: {x: 0, y: 0, z: 3.6073122, w: 4.6088505}
        outSlope: {x: 0, y: 0, z: 3.6073122, w: 4.6088505}
        tangentMode: 0
      - time: 0.5
        value: {x: 0, y: 0, z: 0.89258564, w: -0.45087788}
        inSlope: {x: 0, y: 0, z: 2.6388593, w: 5.2240515}
        outSlope: {x: 0, y: 0, z: 2.6388593, w: 5.2240515}
        tangentMode: 0
      - time: 0.53333336
        value: {x: 0, y: 0, z: 0.9633969, w: -0.26807904}
        inSlope: {x: 0, y: 0, z: 1.5689918, w: 5.6384864}
        outSlope: {x: 0, y: 0, z: 1.5689918, w: 5.6384864}
        tangentMode: 0
      - time: 0.5666667
        value: {x: 0, y: 0, z: 0.9971852, w: -0.07497848}
        inSlope: {x: 0, y: 0, z: 0.43882692, w: 5.836233}
        outSlope: {x: 0, y: 0, z: 0.43882692, w: 5.836233}
        tangentMode: 0
      - time: 0.6000001
        value: {x: 0, y: 0, z: 0.99265206, w: 0.121003464}
        inSlope: {x: 0, y: 0, z: -0.70819825, w: 5.809702}
        outSlope: {x: 0, y: 0, z: -0.70819825, w: 5.809702}
        tangentMode: 0
      - time: 0.63333344
        value: {x: 0, y: 0, z: 0.9499719, w: 0.3123353}
        inSlope: {x: 0, y: 0, z: -1.828007, w: 5.559907}
        outSlope: {x: 0, y: 0, z: -1.828007, w: 5.559907}
        tangentMode: 0
      - time: 0.6666668
        value: {x: 0, y: 0, z: 0.8707848, w: 0.49166426}
        inSlope: {x: 0, y: 0, z: -2.877567, w: 5.0964484}
        outSlope: {x: 0, y: 0, z: -2.877567, w: 5.0964484}
        tangentMode: 0
      - time: 0.70000017
        value: {x: 0, y: 0, z: 0.75813395, w: 0.65209883}
        inSlope: {x: 0, y: 0, z: -3.8165433, w: 4.4371357}
        outSlope: {x: 0, y: 0, z: -3.8165433, w: 4.4371357}
        tangentMode: 0
      - time: 0.7333335
        value: {x: 0, y: 0, z: 0.6163484, w: 0.78747356}
        inSlope: {x: 0, y: 0, z: -4.608858, w: 3.6073098}
        outSlope: {x: 0, y: 0, z: -4.608858, w: 3.6073098}
        tangentMode: 0
      - time: 0.7666669
        value: {x: 0, y: 0, z: 0.45087647, w: 0.89258635}
        inSlope: {x: 0, y: 0, z: -5.224052, w: 2.6388526}
        outSlope: {x: 0, y: 0, z: -5.224052, w: 2.6388526}
        tangentMode: 0
      - time: 0.80000025
        value: {x: 0, y: 0, z: 0.26807797, w: 0.9633972}
        inSlope: {x: 0, y: 0, z: -5.638482, w: 1.5689819}
        outSlope: {x: 0, y: 0, z: -5.638482, w: 1.5689819}
        tangentMode: 0
      - time: 0.8333336
        value: {x: 0, y: 0, z: 0.07497737, w: 0.99718523}
        inSlope: {x: 0, y: 0, z: -5.8362403, w: 0.43881977}
        outSlope: {x: 0, y: 0, z: -5.8362403, w: 0.43881977}
        tangentMode: 0
      - time: 0.866667
        value: {x: 0, y: 0, z: -0.12100504, w: 0.9926519}
        inSlope: {x: 0, y: 0, z: -5.809701, w: -0.7082045}
        outSlope: {x: 0, y: 0, z: -5.809701, w: -0.7082045}
        tangentMode: 0
      - time: 0.90000033
        value: {x: 0, y: 0, z: -0.31233636, w: 0.94997156}
        inSlope: {x: 0, y: 0, z: -5.5598984, w: -1.8280125}
        outSlope: {x: 0, y: 0, z: -5.5598984, w: -1.8280125}
        tangentMode: 0
      - time: 0.9333337
        value: {x: 0, y: 0, z: -0.49166524, w: 0.8707843}
        inSlope: {x: 0, y: 0, z: -5.0964456, w: -2.8775725}
        outSlope: {x: 0, y: 0, z: -5.0964456, w: -2.8775725}
        tangentMode: 0
      - time: 0.96666706
        value: {x: 0, y: 0, z: -0.65209967, w: 0.75813323}
        inSlope: {x: 0, y: 0, z: -4.4371357, w: -3.8165517}
        outSlope: {x: 0, y: 0, z: -4.4371357, w: -3.8165517}
        tangentMode: 0
      - time: 1.0000004
        value: {x: 0, y: 0, z: -0.7874743, w: 0.61634755}
        inSlope: {x: 0, y: 0, z: -3.6073081, w: -4.6088643}
        outSlope: {x: 0, y: 0, z: -3.6073081, w: -4.6088643}
        tangentMode: 0
      - time: 1.0333337
        value: {x: 0, y: 0, z: -0.89258665, w: 0.4508759}
        inSlope: {x: 0, y: 0, z: -2.6388497, w: -5.22405}
        outSlope: {x: 0, y: 0, z: -2.6388497, w: -5.22405}
        tangentMode: 0
      - time: 1.0666667
        value: {x: 0, y: 0, z: -0.9633969, w: 0.2680792}
        inSlope: {x: 0, y: 0, z: -2.124325, w: -5.483946}
        outSlope: {x: 0, y: 0, z: -2.124325, w: -5.483946}
        tangentMode: 0
      m_PreInfinity: 2
      m_PostInfinity: 2
      m_RotationOrder: 4
    path: Car2_1
  - curve:
      serializedVersion: 2
      m_Curve:
      - time: 0
        value: {x: 0, y: 0, z: -0.9633969, w: 0.26807913}
        inSlope: {x: 0, y: 0, z: -1.0136461, w: -5.793013}
        outSlope: {x: 0, y: 0, z: -1.0136461, w: -5.793013}
        tangentMode: 0
      - time: 0.033333335
        value: {x: 0, y: 0, z: -0.9971851, w: 0.07497869}
        inSlope: {x: 0, y: 0, z: -0.43882817, w: -5.8362355}
        outSlope: {x: 0, y: 0, z: -0.43882817, w: -5.8362355}
        tangentMode: 0
      - time: 0.06666667
        value: {x: 0, y: 0, z: -0.9926521, w: -0.121003255}
        inSlope: {x: 0, y: 0, z: 0.70819604, w: -5.809705}
        outSlope: {x: 0, y: 0, z: 0.70819604, w: -5.809705}
        tangentMode: 0
      - time: 0.10000001
        value: {x: 0, y: 0, z: -0.94997203, w: -0.31233498}
        inSlope: {x: 0, y: 0, z: 1.8280067, w: -5.559911}
        outSlope: {x: 0, y: 0, z: 1.8280067, w: -5.559911}
        tangentMode: 0
      - time: 0.13333334
        value: {x: 0, y: 0, z: -0.870785, w: -0.491664}
        inSlope: {x: 0, y: 0, z: 2.877566, w: -5.0964518}
        outSlope: {x: 0, y: 0, z: 2.877566, w: -5.0964518}
        tangentMode: 0
      - time: 0.16666667
        value: {x: 0, y: 0, z: -0.7581343, w: -0.6520984}
        inSlope: {x: 0, y: 0, z: 3.8165395, w: -4.4371367}
        outSlope: {x: 0, y: 0, z: 3.8165395, w: -4.4371367}
        tangentMode: 0
      - time: 0.2
        value: {x: 0, y: 0, z: -0.61634904, w: -0.7874731}
        inSlope: {x: 0, y: 0, z: 4.6088505, w: -3.6073103}
        outSlope: {x: 0, y: 0, z: 4.6088505, w: -3.6073103}
        tangentMode: 0
      - time: 0.23333333
        value: {x: 0, y: 0, z: -0.4508776, w: -0.89258575}
        inSlope: {x: 0, y: 0, z: 5.2240505, w: -2.6388578}
        outSlope: {x: 0, y: 0, z: 5.2240505, w: -2.6388578}
        tangentMode: 0
      - time: 0.26666668
        value: {x: 0, y: 0, z: -0.26807895, w: -0.96339697}
        inSlope: {x: 0, y: 0, z: 5.6384797, w: -1.56899}
        outSlope: {x: 0, y: 0, z: 5.6384797, w: -1.56899}
        tangentMode: 0
      - time: 0.3
        value: {x: 0, y: 0, z: -0.07497888, w: -0.9971851}
        inSlope: {x: 0, y: 0, z: 5.8362303, w: -0.43882734}
        outSlope: {x: 0, y: 0, z: 5.8362303, w: -0.43882734}
        tangentMode: 0
      - time: 0.33333334
        value: {x: 0, y: 0, z: 0.12100306, w: -0.9926521}
        inSlope: {x: 0, y: 0, z: 5.8097076, w: 0.7081962}
        outSlope: {x: 0, y: 0, z: 5.8097076, w: 0.7081962}
        tangentMode: 0
      - time: 0.36666667
        value: {x: 0, y: 0, z: 0.31233492, w: -0.94997203}
        inSlope: {x: 0, y: 0, z: 5.559907, w: 1.8280025}
        outSlope: {x: 0, y: 0, z: 5.559907, w: 1.8280025}
        tangentMode: 0
      - time: 0.4
        value: {x: 0, y: 0, z: 0.49166352, w: -0.8707853}
        inSlope: {x: 0, y: 0, z: 5.096449, w: 2.8775625}
        outSlope: {x: 0, y: 0, z: 5.096449, w: 2.8775625}
        tangentMode: 0
      - time: 0.43333334
        value: {x: 0, y: 0, z: 0.6520982, w: -0.75813454}
        inSlope: {x: 0, y: 0, z: 4.4371414, w: 3.8165405}
        outSlope: {x: 0, y: 0, z: 4.4371414, w: 3.8165405}
        tangentMode: 0
      - time: 0.46666667
        value: {x: 0, y: 0, z: 0.7874729, w: -0.6163493}
        inSlope: {x: 0, y: 0, z: 3.6073122, w: 4.6088505}
        outSlope: {x: 0, y: 0, z: 3.6073122, w: 4.6088505}
        tangentMode: 0
      - time: 0.5
        value: {x: 0, y: 0, z: 0.89258564, w: -0.45087788}
        inSlope: {x: 0, y: 0, z: 2.6388593, w: 5.2240515}
        outSlope: {x: 0, y: 0, z: 2.6388593, w: 5.2240515}
        tangentMode: 0
      - time: 0.53333336
        value: {x: 0, y: 0, z: 0.9633969, w: -0.26807904}
        inSlope: {x: 0, y: 0, z: 1.5689918, w: 5.6384864}
        outSlope: {x: 0, y: 0, z: 1.5689918, w: 5.6384864}
        tangentMode: 0
      - time: 0.5666667
        value: {x: 0, y: 0, z: 0.9971852, w: -0.07497848}
        inSlope: {x: 0, y: 0, z: 0.43882692, w: 5.836233}
        outSlope: {x: 0, y: 0, z: 0.43882692, w: 5.836233}
        tangentMode: 0
      - time: 0.6000001
        value: {x: 0, y: 0, z: 0.99265206, w: 0.121003464}
        inSlope: {x: 0, y: 0, z: -0.70819825, w: 5.809702}
        outSlope: {x: 0, y: 0, z: -0.70819825, w: 5.809702}
        tangentMode: 0
      - time: 0.63333344
        value: {x: 0, y: 0, z: 0.9499719, w: 0.3123353}
        inSlope: {x: 0, y: 0, z: -1.828007, w: 5.559907}
        outSlope: {x: 0, y: 0, z: -1.828007, w: 5.559907}
        tangentMode: 0
      - time: 0.6666668
        value: {x: 0, y: 0, z: 0.8707848, w: 0.49166426}
        inSlope: {x: 0, y: 0, z: -2.877567, w: 5.0964484}
        outSlope: {x: 0, y: 0, z: -2.877567, w: 5.0964484}
        tangentMode: 0
      - time: 0.70000017
        value: {x: 0, y: 0, z: 0.75813395, w: 0.65209883}
        inSlope: {x: 0, y: 0, z: -3.8165433, w: 4.4371357}
        outSlope: {x: 0, y: 0, z: -3.8165433, w: 4.4371357}
        tangentMode: 0
      - time: 0.7333335
        value: {x: 0, y: 0, z: 0.6163484, w: 0.78747356}
        inSlope: {x: 0, y: 0, z: -4.608858, w: 3.6073098}
        outSlope: {x: 0, y: 0, z: -4.608858, w: 3.6073098}
        tangentMode: 0
      - time: 0.7666669
        value: {x: 0, y: 0, z: 0.45087647, w: 0.89258635}
        inSlope: {x: 0, y: 0, z: -5.224052, w: 2.6388526}
        outSlope: {x: 0, y: 0, z: -5.224052, w: 2.6388526}
        tangentMode: 0
      - time: 0.80000025
        value: {x: 0, y: 0, z: 0.26807797, w: 0.9633972}
        inSlope: {x: 0, y: 0, z: -5.638482, w: 1.5689819}
        outSlope: {x: 0, y: 0, z: -5.638482, w: 1.5689819}
        tangentMode: 0
      - time: 0.8333336
        value: {x: 0, y: 0, z: 0.07497737, w: 0.99718523}
        inSlope: {x: 0, y: 0, z: -5.8362403, w: 0.43881977}
        outSlope: {x: 0, y: 0, z: -5.8362403, w: 0.43881977}
        tangentMode: 0
      - time: 0.866667
        value: {x: 0, y: 0, z: -0.12100504, w: 0.9926519}
        inSlope: {x: 0, y: 0, z: -5.809701, w: -0.7082045}
        outSlope: {x: 0, y: 0, z: -5.809701, w: -0.7082045}
        tangentMode: 0
      - time: 0.90000033
        value: {x: 0, y: 0, z: -0.31233636, w: 0.94997156}
        inSlope: {x: 0, y: 0, z: -5.5598984, w: -1.8280125}
        outSlope: {x: 0, y: 0, z: -5.5598984, w: -1.8280125}
        tangentMode: 0
      - time: 0.9333337
        value: {x: 0, y: 0, z: -0.49166524, w: 0.8707843}
        inSlope: {x: 0, y: 0, z: -5.0964456, w: -2.8775725}
        outSlope: {x: 0, y: 0, z: -5.0964456, w: -2.8775725}
        tangentMode: 0
      - time: 0.96666706
        value: {x: 0, y: 0, z: -0.65209967, w: 0.75813323}
        inSlope: {x: 0, y: 0, z: -4.4371357, w: -3.8165517}
        outSlope: {x: 0, y: 0, z: -4.4371357, w: -3.8165517}
        tangentMode: 0
      - time: 1.0000004
        value: {x: 0, y: 0, z: -0.7874743, w: 0.61634755}
        inSlope: {x: 0, y: 0, z: -3.6073081, w: -4.6088643}
        outSlope: {x: 0, y: 0, z: -3.6073081, w: -4.6088643}
        tangentMode: 0
      - time: 1.0333337
        value: {x: 0, y: 0, z: -0.89258665, w: 0.4508759}
        inSlope: {x: 0, y: 0, z: -2.6388497, w: -5.22405}
        outSlope: {x: 0, y: 0, z: -2.6388497, w: -5.22405}
        tangentMode: 0
      - time: 1.0666667
        value: {x: 0, y: 0, z: -0.9633969, w: 0.2680792}
        inSlope: {x: 0, y: 0, z: -2.124325, w: -5.483946}
        outSlope: {x: 0, y: 0, z: -2.124325, w: -5.483946}
        tangentMode: 0
      m_PreInfinity: 2
      m_PostInfinity: 2
      m_RotationOrder: 4
    path: Car2_2
  m_CompressedRotationCurves: []
  m_EulerCurves: []
  m_PositionCurves: []
  m_ScaleCurves: []
  m_FloatCurves:
  - curve:
      serializedVersion: 2
      m_Curve:
      - time: 0
        value: 10
        inSlope: -5
        outSlope: -5
        tangentMode: 10
      - time: 1
        value: 5
        inSlope: -5
        outSlope: -5
        tangentMode: 10
      m_PreInfinity: 2
      m_PostInfinity: 2
      m_RotationOrder: 4
    attribute: EmissionModule.rate.scalar
    path: Particle System
    classID: 198
    script: {fileID: 0}
  - curve:
      serializedVersion: 2
      m_Curve:
      - time: 0
        value: 5
        inSlope: 0
        outSlope: 0
        tangentMode: 10
      m_PreInfinity: 2
      m_PostInfinity: 2
      m_RotationOrder: 4
    attribute: InitialModule.startSpeed.scalar
    path: Particle System
    classID: 198
    script: {fileID: 0}
  - curve:
      serializedVersion: 2
      m_Curve:
      - time: 0
        value: 8
        inSlope: 0
        outSlope: 0
        tangentMode: 10
      m_PreInfinity: 2
      m_PostInfinity: 2
      m_RotationOrder: 4
    attribute: InitialModule.startSize.scalar
    path: Particle System
    classID: 198
    script: {fileID: 0}
  - curve:
      serializedVersion: 2
      m_Curve:
      - time: 0
        value: 81
        inSlope: 0
        outSlope: 0
        tangentMode: 10
      m_PreInfinity: 2
      m_PostInfinity: 2
      m_RotationOrder: 4
    attribute: InitialModule.startColor.maxColor.r
    path: Particle System
    classID: 198
    script: {fileID: 0}
  - curve:
      serializedVersion: 2
      m_Curve:
      - time: 0
        value: 79
        inSlope: 0
        outSlope: 0
        tangentMode: 10
      m_PreInfinity: 2
      m_PostInfinity: 2
      m_RotationOrder: 4
    attribute: InitialModule.startColor.maxColor.g
    path: Particle System
    classID: 198
    script: {fileID: 0}
  - curve:
      serializedVersion: 2
      m_Curve:
      - time: 0
        value: 79
        inSlope: 0
        outSlope: 0
        tangentMode: 10
      m_PreInfinity: 2
      m_PostInfinity: 2
      m_RotationOrder: 4
    attribute: InitialModule.startColor.maxColor.b
    path: Particle System
    classID: 198
    script: {fileID: 0}
  m_PPtrCurves: []
  m_SampleRate: 30
  m_WrapMode: 0
  m_Bounds:
    m_Center: {x: 0, y: 0, z: 0}
    m_Extent: {x: 0, y: 0, z: 0}
  m_ClipBindingConstant:
    genericBindings:
    - path: 377003988
      attribute: 2
      script: {fileID: 0}
      classID: 4
      customType: 0
      isPPtrCurve: 0
    - path: 2406600302
      attribute: 2
      script: {fileID: 0}
      classID: 4
      customType: 0
      isPPtrCurve: 0
    - path: 922205677
      attribute: 2181258151
      script: {fileID: 0}
      classID: 198
      customType: 0
      isPPtrCurve: 0
    - path: 922205677
      attribute: 1063861377
      script: {fileID: 0}
      classID: 198
      customType: 27
      isPPtrCurve: 0
    - path: 922205677
      attribute: 3638086055
      script: {fileID: 0}
      classID: 198
      customType: 27
      isPPtrCurve: 0
    - path: 922205677
      attribute: 4078873663
      script: {fileID: 0}
      classID: 198
      customType: 27
      isPPtrCurve: 0
    - path: 922205677
      attribute: 2663598292
      script: {fileID: 0}
      classID: 198
      customType: 27
      isPPtrCurve: 0
    - path: 922205677
      attribute: 4004101211
      script: {fileID: 0}
      classID: 198
      customType: 27
      isPPtrCurve: 0
    pptrCurveMapping: []
  m_AnimationClipSettings:
    serializedVersion: 2
    m_AdditiveReferencePoseClip: {fileID: 0}
    m_AdditiveReferencePoseTime: 0
    m_StartTime: 0
    m_StopTime: 1.0666667
    m_OrientationOffsetY: 0
    m_Level: 0
    m_CycleOffset: 0
    m_HasAdditiveReferencePose: 0
    m_LoopTime: 1
    m_LoopBlend: 0
    m_LoopBlendOrientation: 0
    m_LoopBlendPositionY: 0
    m_LoopBlendPositionXZ: 0
    m_KeepOriginalOrientation: 0
    m_KeepOriginalPositionY: 1
    m_KeepOriginalPositionXZ: 0
    m_HeightFromFeet: 0
    m_Mirror: 0
  m_EditorCurves:
  - curve:
      serializedVersion: 2
      m_Curve:
      - time: 0
        value: 10
        inSlope: -5
        outSlope: -5
        tangentMode: 10
      - time: 1
        value: 5
        inSlope: -5
        outSlope: -5
        tangentMode: 10
      m_PreInfinity: 2
      m_PostInfinity: 2
      m_RotationOrder: 4
    attribute: EmissionModule.rate.scalar
    path: Particle System
    classID: 198
    script: {fileID: 0}
  - curve:
      serializedVersion: 2
      m_Curve:
      - time: 0
        value: 5
        inSlope: 0
        outSlope: 0
        tangentMode: 10
      m_PreInfinity: 2
      m_PostInfinity: 2
      m_RotationOrder: 4
    attribute: InitialModule.startSpeed.scalar
    path: Particle System
    classID: 198
    script: {fileID: 0}
  - curve:
      serializedVersion: 2
      m_Curve:
      - time: 0
        value: 8
        inSlope: 0
        outSlope: 0
        tangentMode: 10
      m_PreInfinity: 2
      m_PostInfinity: 2
      m_RotationOrder: 4
    attribute: InitialModule.startSize.scalar
    path: Particle System
    classID: 198
    script: {fileID: 0}
  - curve:
      serializedVersion: 2
      m_Curve:
      - time: 0
        value: 81
        inSlope: 0
        outSlope: 0
        tangentMode: 10
      m_PreInfinity: 2
      m_PostInfinity: 2
      m_RotationOrder: 4
    attribute: InitialModule.startColor.maxColor.r
    path: Particle System
    classID: 198
    script: {fileID: 0}
  - curve:
      serializedVersion: 2
      m_Curve:
      - time: 0
        value: 79
        inSlope: 0
        outSlope: 0
        tangentMode: 10
      m_PreInfinity: 2
      m_PostInfinity: 2
      m_RotationOrder: 4
    attribute: InitialModule.startColor.maxColor.g
    path: Particle System
    classID: 198
    script: {fileID: 0}
  - curve:
      serializedVersion: 2
      m_Curve:
      - time: 0
        value: 79
        inSlope: 0
        outSlope: 0
        tangentMode: 10
      m_PreInfinity: 2
      m_PostInfinity: 2
      m_RotationOrder: 4
    attribute: InitialModule.startColor.maxColor.b
    path: Particle System
    classID: 198
    script: {fileID: 0}
  - curve:
      serializedVersion: 2
      m_Curve:
      - time: 0
        value: 0
        inSlope: 0
        outSlope: 0
        tangentMode: 0
      - time: 0.033333335
        value: 0
        inSlope: 0
        outSlope: 0
        tangentMode: 0
      - time: 0.06666667
        value: 0
        inSlope: 0
        outSlope: 0
        tangentMode: 0
      - time: 0.10000001
        value: 0
        inSlope: 0
        outSlope: 0
        tangentMode: 0
      - time: 0.13333334
        value: 0
        inSlope: 0
        outSlope: 0
        tangentMode: 0
      - time: 0.16666667
        value: 0
        inSlope: 0
        outSlope: 0
        tangentMode: 0
      - time: 0.2
        value: 0
        inSlope: 0
        outSlope: 0
        tangentMode: 0
      - time: 0.23333333
        value: 0
        inSlope: 0
        outSlope: 0
        tangentMode: 0
      - time: 0.26666668
        value: 0
        inSlope: 0
        outSlope: 0
        tangentMode: 0
      - time: 0.3
        value: 0
        inSlope: 0
        outSlope: 0
        tangentMode: 0
      - time: 0.33333334
        value: 0
        inSlope: 0
        outSlope: 0
        tangentMode: 0
      - time: 0.36666667
        value: 0
        inSlope: 0
        outSlope: 0
        tangentMode: 0
      - time: 0.4
        value: 0
        inSlope: 0
        outSlope: 0
        tangentMode: 0
      - time: 0.43333334
        value: 0
        inSlope: 0
        outSlope: 0
        tangentMode: 0
      - time: 0.46666667
        value: 0
        inSlope: 0
        outSlope: 0
        tangentMode: 0
      - time: 0.5
        value: 0
        inSlope: 0
        outSlope: 0
        tangentMode: 0
      - time: 0.53333336
        value: 0
        inSlope: 0
        outSlope: 0
        tangentMode: 0
      - time: 0.5666667
        value: 0
        inSlope: 0
        outSlope: 0
        tangentMode: 0
      - time: 0.6000001
        value: 0
        inSlope: 0
        outSlope: 0
        tangentMode: 0
      - time: 0.63333344
        value: 0
        inSlope: 0
        outSlope: 0
        tangentMode: 0
      - time: 0.6666668
        value: 0
        inSlope: 0
        outSlope: 0
        tangentMode: 0
      - time: 0.70000017
        value: 0
        inSlope: 0
        outSlope: 0
        tangentMode: 0
      - time: 0.7333335
        value: 0
        inSlope: 0
        outSlope: 0
        tangentMode: 0
      - time: 0.7666669
        value: 0
        inSlope: 0
        outSlope: 0
        tangentMode: 0
      - time: 0.80000025
        value: 0
        inSlope: 0
        outSlope: 0
        tangentMode: 0
      - time: 0.8333336
        value: 0
        inSlope: 0
        outSlope: 0
        tangentMode: 0
      - time: 0.866667
        value: 0
        inSlope: 0
        outSlope: 0
        tangentMode: 0
      - time: 0.90000033
        value: 0
        inSlope: 0
        outSlope: 0
        tangentMode: 0
      - time: 0.9333337
        value: 0
        inSlope: 0
        outSlope: 0
        tangentMode: 0
      - time: 0.96666706
        value: 0
        inSlope: 0
        outSlope: 0
        tangentMode: 0
      - time: 1.0000004
        value: 0
        inSlope: 0
        outSlope: 0
        tangentMode: 0
      - time: 1.0333337
        value: 0
        inSlope: 0
        outSlope: 0
        tangentMode: 0
      - time: 1.0666667
        value: 0
        inSlope: 0
        outSlope: 0
        tangentMode: 0
      m_PreInfinity: 2
      m_PostInfinity: 2
      m_RotationOrder: 4
    attribute: m_LocalRotation.x
    path: Car2_1
    classID: 4
    script: {fileID: 0}
  - curve:
      serializedVersion: 2
      m_Curve:
      - time: 0
        value: 0
        inSlope: 0
        outSlope: 0
        tangentMode: 0
      - time: 0.033333335
        value: 0
        inSlope: 0
        outSlope: 0
        tangentMode: 0
      - time: 0.06666667
        value: 0
        inSlope: 0
        outSlope: 0
        tangentMode: 0
      - time: 0.10000001
        value: 0
        inSlope: 0
        outSlope: 0
        tangentMode: 0
      - time: 0.13333334
        value: 0
        inSlope: 0
        outSlope: 0
        tangentMode: 0
      - time: 0.16666667
        value: 0
        inSlope: 0
        outSlope: 0
        tangentMode: 0
      - time: 0.2
        value: 0
        inSlope: 0
        outSlope: 0
        tangentMode: 0
      - time: 0.23333333
        value: 0
        inSlope: 0
        outSlope: 0
        tangentMode: 0
      - time: 0.26666668
        value: 0
        inSlope: 0
        outSlope: 0
        tangentMode: 0
      - time: 0.3
        value: 0
        inSlope: 0
        outSlope: 0
        tangentMode: 0
      - time: 0.33333334
        value: 0
        inSlope: 0
        outSlope: 0
        tangentMode: 0
      - time: 0.36666667
        value: 0
        inSlope: 0
        outSlope: 0
        tangentMode: 0
      - time: 0.4
        value: 0
        inSlope: 0
        outSlope: 0
        tangentMode: 0
      - time: 0.43333334
        value: 0
        inSlope: 0
        outSlope: 0
        tangentMode: 0
      - time: 0.46666667
        value: 0
        inSlope: 0
        outSlope: 0
        tangentMode: 0
      - time: 0.5
        value: 0
        inSlope: 0
        outSlope: 0
        tangentMode: 0
      - time: 0.53333336
        value: 0
        inSlope: 0
        outSlope: 0
        tangentMode: 0
      - time: 0.5666667
        value: 0
        inSlope: 0
        outSlope: 0
        tangentMode: 0
      - time: 0.6000001
        value: 0
        inSlope: 0
        outSlope: 0
        tangentMode: 0
      - time: 0.63333344
        value: 0
        inSlope: 0
        outSlope: 0
        tangentMode: 0
      - time: 0.6666668
        value: 0
        inSlope: 0
        outSlope: 0
        tangentMode: 0
      - time: 0.70000017
        value: 0
        inSlope: 0
        outSlope: 0
        tangentMode: 0
      - time: 0.7333335
        value: 0
        inSlope: 0
        outSlope: 0
        tangentMode: 0
      - time: 0.7666669
        value: 0
        inSlope: 0
        outSlope: 0
        tangentMode: 0
      - time: 0.80000025
        value: 0
        inSlope: 0
        outSlope: 0
        tangentMode: 0
      - time: 0.8333336
        value: 0
        inSlope: 0
        outSlope: 0
        tangentMode: 0
      - time: 0.866667
        value: 0
        inSlope: 0
        outSlope: 0
        tangentMode: 0
      - time: 0.90000033
        value: 0
        inSlope: 0
        outSlope: 0
        tangentMode: 0
      - time: 0.9333337
        value: 0
        inSlope: 0
        outSlope: 0
        tangentMode: 0
      - time: 0.96666706
        value: 0
        inSlope: 0
        outSlope: 0
        tangentMode: 0
      - time: 1.0000004
        value: 0
        inSlope: 0
        outSlope: 0
        tangentMode: 0
      - time: 1.0333337
        value: 0
        inSlope: 0
        outSlope: 0
        tangentMode: 0
      - time: 1.0666667
        value: 0
        inSlope: 0
        outSlope: 0
        tangentMode: 0
      m_PreInfinity: 2
      m_PostInfinity: 2
      m_RotationOrder: 4
    attribute: m_LocalRotation.y
    path: Car2_1
    classID: 4
    script: {fileID: 0}
  - curve:
      serializedVersion: 2
      m_Curve:
      - time: 0
        value: -0.9633969
        inSlope: -1.0136461
        outSlope: -1.0136461
        tangentMode: 0
      - time: 0.033333335
        value: -0.9971851
        inSlope: -0.43882817
        outSlope: -0.43882817
        tangentMode: 0
      - time: 0.06666667
        value: -0.9926521
        inSlope: 0.70819604
        outSlope: 0.70819604
        tangentMode: 0
      - time: 0.10000001
        value: -0.94997203
        inSlope: 1.8280067
        outSlope: 1.8280067
        tangentMode: 0
      - time: 0.13333334
        value: -0.870785
        inSlope: 2.877566
        outSlope: 2.877566
        tangentMode: 0
      - time: 0.16666667
        value: -0.7581343
        inSlope: 3.8165395
        outSlope: 3.8165395
        tangentMode: 0
      - time: 0.2
        value: -0.61634904
        inSlope: 4.6088505
        outSlope: 4.6088505
        tangentMode: 0
      - time: 0.23333333
        value: -0.4508776
        inSlope: 5.2240505
        outSlope: 5.2240505
        tangentMode: 0
      - time: 0.26666668
        value: -0.26807895
        inSlope: 5.6384797
        outSlope: 5.6384797
        tangentMode: 0
      - time: 0.3
        value: -0.07497888
        inSlope: 5.8362303
        outSlope: 5.8362303
        tangentMode: 0
      - time: 0.33333334
        value: 0.12100306
        inSlope: 5.8097076
        outSlope: 5.8097076
        tangentMode: 0
      - time: 0.36666667
        value: 0.31233492
        inSlope: 5.559907
        outSlope: 5.559907
        tangentMode: 0
      - time: 0.4
        value: 0.49166352
        inSlope: 5.096449
        outSlope: 5.096449
        tangentMode: 0
      - time: 0.43333334
        value: 0.6520982
        inSlope: 4.4371414
        outSlope: 4.4371414
        tangentMode: 0
      - time: 0.46666667
        value: 0.7874729
        inSlope: 3.6073122
        outSlope: 3.6073122
        tangentMode: 0
      - time: 0.5
        value: 0.89258564
        inSlope: 2.6388593
        outSlope: 2.6388593
        tangentMode: 0
      - time: 0.53333336
        value: 0.9633969
        inSlope: 1.5689918
        outSlope: 1.5689918
        tangentMode: 0
      - time: 0.5666667
        value: 0.9971852
        inSlope: 0.43882692
        outSlope: 0.43882692
        tangentMode: 0
      - time: 0.6000001
        value: 0.99265206
        inSlope: -0.70819825
        outSlope: -0.70819825
        tangentMode: 0
      - time: 0.63333344
        value: 0.9499719
        inSlope: -1.828007
        outSlope: -1.828007
        tangentMode: 0
      - time: 0.6666668
        value: 0.8707848
        inSlope: -2.877567
        outSlope: -2.877567
        tangentMode: 0
      - time: 0.70000017
        value: 0.75813395
        inSlope: -3.8165433
        outSlope: -3.8165433
        tangentMode: 0
      - time: 0.7333335
        value: 0.6163484
        inSlope: -4.608858
        outSlope: -4.608858
        tangentMode: 0
      - time: 0.7666669
        value: 0.45087647
        inSlope: -5.224052
        outSlope: -5.224052
        tangentMode: 0
      - time: 0.80000025
        value: 0.26807797
        inSlope: -5.638482
        outSlope: -5.638482
        tangentMode: 0
      - time: 0.8333336
        value: 0.07497737
        inSlope: -5.8362403
        outSlope: -5.8362403
        tangentMode: 0
      - time: 0.866667
        value: -0.12100504
        inSlope: -5.809701
        outSlope: -5.809701
        tangentMode: 0
      - time: 0.90000033
        value: -0.31233636
        inSlope: -5.5598984
        outSlope: -5.5598984
        tangentMode: 0
      - time: 0.9333337
        value: -0.49166524
        inSlope: -5.0964456
        outSlope: -5.0964456
        tangentMode: 0
      - time: 0.96666706
        value: -0.65209967
        inSlope: -4.4371357
        outSlope: -4.4371357
        tangentMode: 0
      - time: 1.0000004
        value: -0.7874743
        inSlope: -3.6073081
        outSlope: -3.6073081
        tangentMode: 0
      - time: 1.0333337
        value: -0.89258665
        inSlope: -2.6388497
        outSlope: -2.6388497
        tangentMode: 0
      - time: 1.0666667
        value: -0.9633969
        inSlope: -2.124325
        outSlope: -2.124325
        tangentMode: 0
      m_PreInfinity: 2
      m_PostInfinity: 2
      m_RotationOrder: 4
    attribute: m_LocalRotation.z
    path: Car2_1
    classID: 4
    script: {fileID: 0}
  - curve:
      serializedVersion: 2
      m_Curve:
      - time: 0
        value: 0.26807913
        inSlope: -5.793013
        outSlope: -5.793013
        tangentMode: 0
      - time: 0.033333335
        value: 0.07497869
        inSlope: -5.8362355
        outSlope: -5.8362355
        tangentMode: 0
      - time: 0.06666667
        value: -0.121003255
        inSlope: -5.809705
        outSlope: -5.809705
        tangentMode: 0
      - time: 0.10000001
        value: -0.31233498
        inSlope: -5.559911
        outSlope: -5.559911
        tangentMode: 0
      - time: 0.13333334
        value: -0.491664
        inSlope: -5.0964518
        outSlope: -5.0964518
        tangentMode: 0
      - time: 0.16666667
        value: -0.6520984
        inSlope: -4.4371367
        outSlope: -4.4371367
        tangentMode: 0
      - time: 0.2
        value: -0.7874731
        inSlope: -3.6073103
        outSlope: -3.6073103
        tangentMode: 0
      - time: 0.23333333
        value: -0.89258575
        inSlope: -2.6388578
        outSlope: -2.6388578
        tangentMode: 0
      - time: 0.26666668
        value: -0.96339697
        inSlope: -1.56899
        outSlope: -1.56899
        tangentMode: 0
      - time: 0.3
        value: -0.9971851
        inSlope: -0.43882734
        outSlope: -0.43882734
        tangentMode: 0
      - time: 0.33333334
        value: -0.9926521
        inSlope: 0.7081962
        outSlope: 0.7081962
        tangentMode: 0
      - time: 0.36666667
        value: -0.94997203
        inSlope: 1.8280025
        outSlope: 1.8280025
        tangentMode: 0
      - time: 0.4
        value: -0.8707853
        inSlope: 2.8775625
        outSlope: 2.8775625
        tangentMode: 0
      - time: 0.43333334
        value: -0.75813454
        inSlope: 3.8165405
        outSlope: 3.8165405
        tangentMode: 0
      - time: 0.46666667
        value: -0.6163493
        inSlope: 4.6088505
        outSlope: 4.6088505
        tangentMode: 0
      - time: 0.5
        value: -0.45087788
        inSlope: 5.2240515
        outSlope: 5.2240515
        tangentMode: 0
      - time: 0.53333336
        value: -0.26807904
        inSlope: 5.6384864
        outSlope: 5.6384864
        tangentMode: 0
      - time: 0.5666667
        value: -0.07497848
        inSlope: 5.836233
        outSlope: 5.836233
        tangentMode: 0
      - time: 0.6000001
        value: 0.121003464
        inSlope: 5.809702
        outSlope: 5.809702
        tangentMode: 0
      - time: 0.63333344
        value: 0.3123353
        inSlope: 5.559907
        outSlope: 5.559907
        tangentMode: 0
      - time: 0.6666668
        value: 0.49166426
        inSlope: 5.0964484
        outSlope: 5.0964484
        tangentMode: 0
      - time: 0.70000017
        value: 0.65209883
        inSlope: 4.4371357
        outSlope: 4.4371357
        tangentMode: 0
      - time: 0.7333335
        value: 0.78747356
        inSlope: 3.6073098
        outSlope: 3.6073098
        tangentMode: 0
      - time: 0.7666669
        value: 0.89258635
        inSlope: 2.6388526
        outSlope: 2.6388526
        tangentMode: 0
      - time: 0.80000025
        value: 0.9633972
        inSlope: 1.5689819
        outSlope: 1.5689819
        tangentMode: 0
      - time: 0.8333336
        value: 0.99718523
        inSlope: 0.43881977
        outSlope: 0.43881977
        tangentMode: 0
      - time: 0.866667
        value: 0.9926519
        inSlope: -0.7082045
        outSlope: -0.7082045
        tangentMode: 0
      - time: 0.90000033
        value: 0.94997156
        inSlope: -1.8280125
        outSlope: -1.8280125
        tangentMode: 0
      - time: 0.9333337
        value: 0.8707843
        inSlope: -2.8775725
        outSlope: -2.8775725
        tangentMode: 0
      - time: 0.96666706
        value: 0.75813323
        inSlope: -3.8165517
        outSlope: -3.8165517
        tangentMode: 0
      - time: 1.0000004
        value: 0.61634755
        inSlope: -4.6088643
        outSlope: -4.6088643
        tangentMode: 0
      - time: 1.0333337
        value: 0.4508759
        inSlope: -5.22405
        outSlope: -5.22405
        tangentMode: 0
      - time: 1.0666667
        value: 0.2680792
        inSlope: -5.483946
        outSlope: -5.483946
        tangentMode: 0
      m_PreInfinity: 2
      m_PostInfinity: 2
      m_RotationOrder: 4
    attribute: m_LocalRotation.w
    path: Car2_1
    classID: 4
    script: {fileID: 0}
  - curve:
      serializedVersion: 2
      m_Curve:
      - time: 0
        value: 0
        inSlope: 0
        outSlope: 0
        tangentMode: 0
      - time: 0.033333335
        value: 0
        inSlope: 0
        outSlope: 0
        tangentMode: 0
      - time: 0.06666667
        value: 0
        inSlope: 0
        outSlope: 0
        tangentMode: 0
      - time: 0.10000001
        value: 0
        inSlope: 0
        outSlope: 0
        tangentMode: 0
      - time: 0.13333334
        value: 0
        inSlope: 0
        outSlope: 0
        tangentMode: 0
      - time: 0.16666667
        value: 0
        inSlope: 0
        outSlope: 0
        tangentMode: 0
      - time: 0.2
        value: 0
        inSlope: 0
        outSlope: 0
        tangentMode: 0
      - time: 0.23333333
        value: 0
        inSlope: 0
        outSlope: 0
        tangentMode: 0
      - time: 0.26666668
        value: 0
        inSlope: 0
        outSlope: 0
        tangentMode: 0
      - time: 0.3
        value: 0
        inSlope: 0
        outSlope: 0
        tangentMode: 0
      - time: 0.33333334
        value: 0
        inSlope: 0
        outSlope: 0
        tangentMode: 0
      - time: 0.36666667
        value: 0
        inSlope: 0
        outSlope: 0
        tangentMode: 0
      - time: 0.4
        value: 0
        inSlope: 0
        outSlope: 0
        tangentMode: 0
      - time: 0.43333334
        value: 0
        inSlope: 0
        outSlope: 0
        tangentMode: 0
      - time: 0.46666667
        value: 0
        inSlope: 0
        outSlope: 0
        tangentMode: 0
      - time: 0.5
        value: 0
        inSlope: 0
        outSlope: 0
        tangentMode: 0
      - time: 0.53333336
        value: 0
        inSlope: 0
        outSlope: 0
        tangentMode: 0
      - time: 0.5666667
        value: 0
        inSlope: 0
        outSlope: 0
        tangentMode: 0
      - time: 0.6000001
        value: 0
        inSlope: 0
        outSlope: 0
        tangentMode: 0
      - time: 0.63333344
        value: 0
        inSlope: 0
        outSlope: 0
        tangentMode: 0
      - time: 0.6666668
        value: 0
        inSlope: 0
        outSlope: 0
        tangentMode: 0
      - time: 0.70000017
        value: 0
        inSlope: 0
        outSlope: 0
        tangentMode: 0
      - time: 0.7333335
        value: 0
        inSlope: 0
        outSlope: 0
        tangentMode: 0
      - time: 0.7666669
        value: 0
        inSlope: 0
        outSlope: 0
        tangentMode: 0
      - time: 0.80000025
        value: 0
        inSlope: 0
        outSlope: 0
        tangentMode: 0
      - time: 0.8333336
        value: 0
        inSlope: 0
        outSlope: 0
        tangentMode: 0
      - time: 0.866667
        value: 0
        inSlope: 0
        outSlope: 0
        tangentMode: 0
      - time: 0.90000033
        value: 0
        inSlope: 0
        outSlope: 0
        tangentMode: 0
      - time: 0.9333337
        value: 0
        inSlope: 0
        outSlope: 0
        tangentMode: 0
      - time: 0.96666706
        value: 0
        inSlope: 0
        outSlope: 0
        tangentMode: 0
      - time: 1.0000004
        value: 0
        inSlope: 0
        outSlope: 0
        tangentMode: 0
      - time: 1.0333337
        value: 0
        inSlope: 0
        outSlope: 0
        tangentMode: 0
      - time: 1.0666667
        value: 0
        inSlope: 0
        outSlope: 0
        tangentMode: 0
      m_PreInfinity: 2
      m_PostInfinity: 2
      m_RotationOrder: 4
    attribute: m_LocalRotation.x
    path: Car2_2
    classID: 4
    script: {fileID: 0}
  - curve:
      serializedVersion: 2
      m_Curve:
      - time: 0
        value: 0
        inSlope: 0
        outSlope: 0
        tangentMode: 0
      - time: 0.033333335
        value: 0
        inSlope: 0
        outSlope: 0
        tangentMode: 0
      - time: 0.06666667
        value: 0
        inSlope: 0
        outSlope: 0
        tangentMode: 0
      - time: 0.10000001
        value: 0
        inSlope: 0
        outSlope: 0
        tangentMode: 0
      - time: 0.13333334
        value: 0
        inSlope: 0
        outSlope: 0
        tangentMode: 0
      - time: 0.16666667
        value: 0
        inSlope: 0
        outSlope: 0
        tangentMode: 0
      - time: 0.2
        value: 0
        inSlope: 0
        outSlope: 0
        tangentMode: 0
      - time: 0.23333333
        value: 0
        inSlope: 0
        outSlope: 0
        tangentMode: 0
      - time: 0.26666668
        value: 0
        inSlope: 0
        outSlope: 0
        tangentMode: 0
      - time: 0.3
        value: 0
        inSlope: 0
        outSlope: 0
        tangentMode: 0
      - time: 0.33333334
        value: 0
        inSlope: 0
        outSlope: 0
        tangentMode: 0
      - time: 0.36666667
        value: 0
        inSlope: 0
        outSlope: 0
        tangentMode: 0
      - time: 0.4
        value: 0
        inSlope: 0
        outSlope: 0
        tangentMode: 0
      - time: 0.43333334
        value: 0
        inSlope: 0
        outSlope: 0
        tangentMode: 0
      - time: 0.46666667
        value: 0
        inSlope: 0
        outSlope: 0
        tangentMode: 0
      - time: 0.5
        value: 0
        inSlope: 0
        outSlope: 0
        tangentMode: 0
      - time: 0.53333336
        value: 0
        inSlope: 0
        outSlope: 0
        tangentMode: 0
      - time: 0.5666667
        value: 0
        inSlope: 0
        outSlope: 0
        tangentMode: 0
      - time: 0.6000001
        value: 0
        inSlope: 0
        outSlope: 0
        tangentMode: 0
      - time: 0.63333344
        value: 0
        inSlope: 0
        outSlope: 0
        tangentMode: 0
      - time: 0.6666668
        value: 0
        inSlope: 0
        outSlope: 0
        tangentMode: 0
      - time: 0.70000017
        value: 0
        inSlope: 0
        outSlope: 0
        tangentMode: 0
      - time: 0.7333335
        value: 0
        inSlope: 0
        outSlope: 0
        tangentMode: 0
      - time: 0.7666669
        value: 0
        inSlope: 0
        outSlope: 0
        tangentMode: 0
      - time: 0.80000025
        value: 0
        inSlope: 0
        outSlope: 0
        tangentMode: 0
      - time: 0.8333336
        value: 0
        inSlope: 0
        outSlope: 0
        tangentMode: 0
      - time: 0.866667
        value: 0
        inSlope: 0
        outSlope: 0
        tangentMode: 0
      - time: 0.90000033
        value: 0
        inSlope: 0
        outSlope: 0
        tangentMode: 0
      - time: 0.9333337
        value: 0
        inSlope: 0
        outSlope: 0
        tangentMode: 0
      - time: 0.96666706
        value: 0
        inSlope: 0
        outSlope: 0
        tangentMode: 0
      - time: 1.0000004
        value: 0
        inSlope: 0
        outSlope: 0
        tangentMode: 0
      - time: 1.0333337
        value: 0
        inSlope: 0
        outSlope: 0
        tangentMode: 0
      - time: 1.0666667
        value: 0
        inSlope: 0
        outSlope: 0
        tangentMode: 0
      m_PreInfinity: 2
      m_PostInfinity: 2
      m_RotationOrder: 4
    attribute: m_LocalRotation.y
    path: Car2_2
    classID: 4
    script: {fileID: 0}
  - curve:
      serializedVersion: 2
      m_Curve:
      - time: 0
        value: -0.9633969
        inSlope: -1.0136461
        outSlope: -1.0136461
        tangentMode: 0
      - time: 0.033333335
        value: -0.9971851
        inSlope: -0.43882817
        outSlope: -0.43882817
        tangentMode: 0
      - time: 0.06666667
        value: -0.9926521
        inSlope: 0.70819604
        outSlope: 0.70819604
        tangentMode: 0
      - time: 0.10000001
        value: -0.94997203
        inSlope: 1.8280067
        outSlope: 1.8280067
        tangentMode: 0
      - time: 0.13333334
        value: -0.870785
        inSlope: 2.877566
        outSlope: 2.877566
        tangentMode: 0
      - time: 0.16666667
        value: -0.7581343
        inSlope: 3.8165395
        outSlope: 3.8165395
        tangentMode: 0
      - time: 0.2
        value: -0.61634904
        inSlope: 4.6088505
        outSlope: 4.6088505
        tangentMode: 0
      - time: 0.23333333
        value: -0.4508776
        inSlope: 5.2240505
        outSlope: 5.2240505
        tangentMode: 0
      - time: 0.26666668
        value: -0.26807895
        inSlope: 5.6384797
        outSlope: 5.6384797
        tangentMode: 0
      - time: 0.3
        value: -0.07497888
        inSlope: 5.8362303
        outSlope: 5.8362303
        tangentMode: 0
      - time: 0.33333334
        value: 0.12100306
        inSlope: 5.8097076
        outSlope: 5.8097076
        tangentMode: 0
      - time: 0.36666667
        value: 0.31233492
        inSlope: 5.559907
        outSlope: 5.559907
        tangentMode: 0
      - time: 0.4
        value: 0.49166352
        inSlope: 5.096449
        outSlope: 5.096449
        tangentMode: 0
      - time: 0.43333334
        value: 0.6520982
        inSlope: 4.4371414
        outSlope: 4.4371414
        tangentMode: 0
      - time: 0.46666667
        value: 0.7874729
        inSlope: 3.6073122
        outSlope: 3.6073122
        tangentMode: 0
      - time: 0.5
        value: 0.89258564
        inSlope: 2.6388593
        outSlope: 2.6388593
        tangentMode: 0
      - time: 0.53333336
        value: 0.9633969
        inSlope: 1.5689918
        outSlope: 1.5689918
        tangentMode: 0
      - time: 0.5666667
        value: 0.9971852
        inSlope: 0.43882692
        outSlope: 0.43882692
        tangentMode: 0
      - time: 0.6000001
        value: 0.99265206
        inSlope: -0.70819825
        outSlope: -0.70819825
        tangentMode: 0
      - time: 0.63333344
        value: 0.9499719
        inSlope: -1.828007
        outSlope: -1.828007
        tangentMode: 0
      - time: 0.6666668
        value: 0.8707848
        inSlope: -2.877567
        outSlope: -2.877567
        tangentMode: 0
      - time: 0.70000017
        value: 0.75813395
        inSlope: -3.8165433
        outSlope: -3.8165433
        tangentMode: 0
      - time: 0.7333335
        value: 0.6163484
        inSlope: -4.608858
        outSlope: -4.608858
        tangentMode: 0
      - time: 0.7666669
        value: 0.45087647
        inSlope: -5.224052
        outSlope: -5.224052
        tangentMode: 0
      - time: 0.80000025
        value: 0.26807797
        inSlope: -5.638482
        outSlope: -5.638482
        tangentMode: 0
      - time: 0.8333336
        value: 0.07497737
        inSlope: -5.8362403
        outSlope: -5.8362403
        tangentMode: 0
      - time: 0.866667
        value: -0.12100504
        inSlope: -5.809701
        outSlope: -5.809701
        tangentMode: 0
      - time: 0.90000033
        value: -0.31233636
        inSlope: -5.5598984
        outSlope: -5.5598984
        tangentMode: 0
      - time: 0.9333337
        value: -0.49166524
        inSlope: -5.0964456
        outSlope: -5.0964456
        tangentMode: 0
      - time: 0.96666706
        value: -0.65209967
        inSlope: -4.4371357
        outSlope: -4.4371357
        tangentMode: 0
      - time: 1.0000004
        value: -0.7874743
        inSlope: -3.6073081
        outSlope: -3.6073081
        tangentMode: 0
      - time: 1.0333337
        value: -0.89258665
        inSlope: -2.6388497
        outSlope: -2.6388497
        tangentMode: 0
      - time: 1.0666667
        value: -0.9633969
        inSlope: -2.124325
        outSlope: -2.124325
        tangentMode: 0
      m_PreInfinity: 2
      m_PostInfinity: 2
      m_RotationOrder: 4
    attribute: m_LocalRotation.z
    path: Car2_2
    classID: 4
    script: {fileID: 0}
  - curve:
      serializedVersion: 2
      m_Curve:
      - time: 0
        value: 0.26807913
        inSlope: -5.793013
        outSlope: -5.793013
        tangentMode: 0
      - time: 0.033333335
        value: 0.07497869
        inSlope: -5.8362355
        outSlope: -5.8362355
        tangentMode: 0
      - time: 0.06666667
        value: -0.121003255
        inSlope: -5.809705
        outSlope: -5.809705
        tangentMode: 0
      - time: 0.10000001
        value: -0.31233498
        inSlope: -5.559911
        outSlope: -5.559911
        tangentMode: 0
      - time: 0.13333334
        value: -0.491664
        inSlope: -5.0964518
        outSlope: -5.0964518
        tangentMode: 0
      - time: 0.16666667
        value: -0.6520984
        inSlope: -4.4371367
        outSlope: -4.4371367
        tangentMode: 0
      - time: 0.2
        value: -0.7874731
        inSlope: -3.6073103
        outSlope: -3.6073103
        tangentMode: 0
      - time: 0.23333333
        value: -0.89258575
        inSlope: -2.6388578
        outSlope: -2.6388578
        tangentMode: 0
      - time: 0.26666668
        value: -0.96339697
        inSlope: -1.56899
        outSlope: -1.56899
        tangentMode: 0
      - time: 0.3
        value: -0.9971851
        inSlope: -0.43882734
        outSlope: -0.43882734
        tangentMode: 0
      - time: 0.33333334
        value: -0.9926521
        inSlope: 0.7081962
        outSlope: 0.7081962
        tangentMode: 0
      - time: 0.36666667
        value: -0.94997203
        inSlope: 1.8280025
        outSlope: 1.8280025
        tangentMode: 0
      - time: 0.4
        value: -0.8707853
        inSlope: 2.8775625
        outSlope: 2.8775625
        tangentMode: 0
      - time: 0.43333334
        value: -0.75813454
        inSlope: 3.8165405
        outSlope: 3.8165405
        tangentMode: 0
      - time: 0.46666667
        value: -0.6163493
        inSlope: 4.6088505
        outSlope: 4.6088505
        tangentMode: 0
      - time: 0.5
        value: -0.45087788
        inSlope: 5.2240515
        outSlope: 5.2240515
        tangentMode: 0
      - time: 0.53333336
        value: -0.26807904
        inSlope: 5.6384864
        outSlope: 5.6384864
        tangentMode: 0
      - time: 0.5666667
        value: -0.07497848
        inSlope: 5.836233
        outSlope: 5.836233
        tangentMode: 0
      - time: 0.6000001
        value: 0.121003464
        inSlope: 5.809702
        outSlope: 5.809702
        tangentMode: 0
      - time: 0.63333344
        value: 0.3123353
        inSlope: 5.559907
        outSlope: 5.559907
        tangentMode: 0
      - time: 0.6666668
        value: 0.49166426
        inSlope: 5.0964484
        outSlope: 5.0964484
        tangentMode: 0
      - time: 0.70000017
        value: 0.65209883
        inSlope: 4.4371357
        outSlope: 4.4371357
        tangentMode: 0
      - time: 0.7333335
        value: 0.78747356
        inSlope: 3.6073098
        outSlope: 3.6073098
        tangentMode: 0
      - time: 0.7666669
        value: 0.89258635
        inSlope: 2.6388526
        outSlope: 2.6388526
        tangentMode: 0
      - time: 0.80000025
        value: 0.9633972
        inSlope: 1.5689819
        outSlope: 1.5689819
        tangentMode: 0
      - time: 0.8333336
        value: 0.99718523
        inSlope: 0.43881977
        outSlope: 0.43881977
        tangentMode: 0
      - time: 0.866667
        value: 0.9926519
        inSlope: -0.7082045
        outSlope: -0.7082045
        tangentMode: 0
      - time: 0.90000033
        value: 0.94997156
        inSlope: -1.8280125
        outSlope: -1.8280125
        tangentMode: 0
      - time: 0.9333337
        value: 0.8707843
        inSlope: -2.8775725
        outSlope: -2.8775725
        tangentMode: 0
      - time: 0.96666706
        value: 0.75813323
        inSlope: -3.8165517
        outSlope: -3.8165517
        tangentMode: 0
      - time: 1.0000004
        value: 0.61634755
        inSlope: -4.6088643
        outSlope: -4.6088643
        tangentMode: 0
      - time: 1.0333337
        value: 0.4508759
        inSlope: -5.22405
        outSlope: -5.22405
        tangentMode: 0
      - time: 1.0666667
        value: 0.2680792
        inSlope: -5.483946
        outSlope: -5.483946
        tangentMode: 0
      m_PreInfinity: 2
      m_PostInfinity: 2
      m_RotationOrder: 4
    attribute: m_LocalRotation.w
    path: Car2_2
    classID: 4
    script: {fileID: 0}
  m_EulerEditorCurves:
  - curve:
      serializedVersion: 2
      m_Curve:
      - time: 0
        value: 0
        inSlope: 0
        outSlope: 0
        tangentMode: 10
      - time: 1.0666667
        value: 0
        inSlope: 0
        outSlope: 0
        tangentMode: 10
      m_PreInfinity: 2
      m_PostInfinity: 2
      m_RotationOrder: 4
    attribute: localEulerAnglesBaked.x
    path: Car2_2
    classID: 4
    script: {fileID: 0}
  - curve:
      serializedVersion: 2
      m_Curve:
      - time: 0
        value: 0
        inSlope: 0
        outSlope: 0
        tangentMode: 10
      - time: 1.0666667
        value: 0
        inSlope: 0
        outSlope: 0
        tangentMode: 10
      m_PreInfinity: 2
      m_PostInfinity: 2
      m_RotationOrder: 4
    attribute: localEulerAnglesBaked.y
    path: Car2_2
    classID: 4
    script: {fileID: 0}
  - curve:
      serializedVersion: 2
      m_Curve:
      - time: 0
        value: -148.90001
        inSlope: -674.99994
        outSlope: -674.99994
        tangentMode: 10
      - time: 1.0666667
        value: -868.9
        inSlope: -674.99994
        outSlope: -674.99994
        tangentMode: 10
      m_PreInfinity: 2
      m_PostInfinity: 2
      m_RotationOrder: 4
    attribute: localEulerAnglesBaked.z
    path: Car2_2
    classID: 4
    script: {fileID: 0}
  - curve:
      serializedVersion: 2
      m_Curve:
      - time: 0
        value: 0
        inSlope: 0
        outSlope: 0
        tangentMode: 10
      - time: 1.0666667
        value: 0
        inSlope: 0
        outSlope: 0
        tangentMode: 10
      m_PreInfinity: 2
      m_PostInfinity: 2
      m_RotationOrder: 4
    attribute: localEulerAnglesBaked.x
    path: Car2_1
    classID: 4
    script: {fileID: 0}
  - curve:
      serializedVersion: 2
      m_Curve:
      - time: 0
        value: 0
        inSlope: 0
        outSlope: 0
        tangentMode: 10
      - time: 1.0666667
        value: 0
        inSlope: 0
        outSlope: 0
        tangentMode: 10
      m_PreInfinity: 2
      m_PostInfinity: 2
      m_RotationOrder: 4
    attribute: localEulerAnglesBaked.y
    path: Car2_1
    classID: 4
    script: {fileID: 0}
  - curve:
      serializedVersion: 2
      m_Curve:
      - time: 0
        value: -148.90001
        inSlope: -674.99994
        outSlope: -674.99994
        tangentMode: 10
      - time: 1.0666667
        value: -868.9
        inSlope: -674.99994
        outSlope: -674.99994
        tangentMode: 10
      m_PreInfinity: 2
      m_PostInfinity: 2
      m_RotationOrder: 4
    attribute: localEulerAnglesBaked.z
    path: Car2_1
    classID: 4
    script: {fileID: 0}
  m_HasGenericRootTransform: 0
  m_HasMotionFloatCurves: 0
  m_GenerateMotionCurves: 0
  m_Events: []
